Suite/Test/Step Name,Browser,Description,Start time,End time,Duration,Status
DungeonsAndDragonsTests,Chrome 72.0.3626.121,,2019-03-21 12:37:33,2019-03-21 12:39:15,"1m - 41,801s",FAILED
,,,,,,
Test Cases/login,Chrome 72.0.3626.121,testing the log in sequence of an existing account,2019-03-21 12:37:34,2019-03-21 12:38:34,"1m - 0,164s",FAILED
"openBrowser("""")",Chrome 72.0.3626.121,,2019-03-21 12:37:34,2019-03-21 12:37:41,"6,240s",PASSED
"navigateToUrl(""https://integratie2-frontend2019.herokuapp.com/"")",Chrome 72.0.3626.121,,2019-03-21 12:37:41,2019-03-21 12:38:00,"19,455s",PASSED
"click(findTestObject(""Object Repository/Page_Integratie2FrontEnd2019/button_Log In (2)""))",Chrome 72.0.3626.121,,2019-03-21 12:38:00,2019-03-21 12:38:00,"0,295s",PASSED
"setText(findTestObject(""Object Repository/Page_Integratie2FrontEnd2019/input_REGISTER_email (2)""), ""testuser@spagoud.com"")",Chrome 72.0.3626.121,,2019-03-21 12:38:00,2019-03-21 12:38:01,"0,930s",PASSED
"setEncryptedText(findTestObject(""Object Repository/Page_Integratie2FrontEnd2019/input_REGISTER_password (2)""), ""1/VWEm4uipk="")",Chrome 72.0.3626.121,,2019-03-21 12:38:01,2019-03-21 12:38:02,"0,440s",PASSED
"click(findTestObject(""Object Repository/Page_Integratie2FrontEnd2019/button_login (2)""))",Chrome 72.0.3626.121,,2019-03-21 12:38:02,2019-03-21 12:38:02,"0,260s",PASSED
"click(findTestObject(""Object Repository/Page_Integratie2FrontEnd2019/a_Hi testUser (1)""))",Chrome 72.0.3626.121,,2019-03-21 12:38:02,2019-03-21 12:38:34,"31,828s",FAILED
,,,,,,
Test Cases/lobbyTest,Chrome 72.0.3626.121,,2019-03-21 12:38:34,2019-03-21 12:39:14,"40,338s",FAILED
"openBrowser("""")",Chrome 72.0.3626.121,,2019-03-21 12:38:34,2019-03-21 12:38:38,"3,187s",PASSED
"navigateToUrl(""https://integratie2-frontend2019.herokuapp.com/"")",Chrome 72.0.3626.121,,2019-03-21 12:38:38,2019-03-21 12:38:41,"3,419s",PASSED
"click(findTestObject(""Object Repository/Page_Integratie2FrontEnd2019/button_Go To Servers (1)""))",Chrome 72.0.3626.121,,2019-03-21 12:38:41,2019-03-21 12:38:41,"0,229s",PASSED
"setText(findTestObject(""Object Repository/Page_Integratie2FrontEnd2019/input_REGISTER_email (3) (1)""), ""testuser@spagoud.com"")",Chrome 72.0.3626.121,,2019-03-21 12:38:41,2019-03-21 12:38:42,"0,400s",PASSED
"setEncryptedText(findTestObject(""Object Repository/Page_Integratie2FrontEnd2019/input_REGISTER_password (3) (1)""), ""1/VWEm4uipk="")",Chrome 72.0.3626.121,,2019-03-21 12:38:42,2019-03-21 12:38:42,"0,302s",PASSED
"click(findTestObject(""Object Repository/Page_Integratie2FrontEnd2019/button_login (3) (1)""))",Chrome 72.0.3626.121,,2019-03-21 12:38:42,2019-03-21 12:38:42,"0,231s",PASSED
"click(findTestObject(""Object Repository/Page_Integratie2FrontEnd2019/button_Go To Servers (1)""))",Chrome 72.0.3626.121,,2019-03-21 12:38:42,2019-03-21 12:39:14,"31,930s",FAILED
