Suite/Test/Step Name,Browser,Description,Start time,End time,Duration,Status
DungeonsAndDragonsTests,Chrome 72.0.3626.121,,2019-03-21 10:04:01,2019-03-21 10:05:44,"1m - 43,363s",FAILED
,,,,,,
Test Cases/login,Chrome 72.0.3626.121,testing the log in sequence of an existing account,2019-03-21 10:04:01,2019-03-21 10:05:03,"1m - 1,211s",FAILED
"openBrowser("""")",Chrome 72.0.3626.121,,2019-03-21 10:04:02,2019-03-21 10:04:09,"7,084s",PASSED
"navigateToUrl(""https://integratie2-frontend2019.herokuapp.com/"")",Chrome 72.0.3626.121,,2019-03-21 10:04:09,2019-03-21 10:04:29,"19,899s",PASSED
"click(findTestObject(""Object Repository/Page_Integratie2FrontEnd2019/button_Log In (2)""))",Chrome 72.0.3626.121,,2019-03-21 10:04:29,2019-03-21 10:04:29,"0,290s",PASSED
"setText(findTestObject(""Object Repository/Page_Integratie2FrontEnd2019/input_REGISTER_email (2)""), ""testuser@spagoud.com"")",Chrome 72.0.3626.121,,2019-03-21 10:04:29,2019-03-21 10:04:30,"0,883s",PASSED
"setEncryptedText(findTestObject(""Object Repository/Page_Integratie2FrontEnd2019/input_REGISTER_password (2)""), ""1/VWEm4uipk="")",Chrome 72.0.3626.121,,2019-03-21 10:04:30,2019-03-21 10:04:31,"0,474s",PASSED
"click(findTestObject(""Object Repository/Page_Integratie2FrontEnd2019/button_login (2)""))",Chrome 72.0.3626.121,,2019-03-21 10:04:31,2019-03-21 10:04:31,"0,267s",PASSED
"click(findTestObject(""Object Repository/Page_Integratie2FrontEnd2019/a_Hi testUser (1)""))",Chrome 72.0.3626.121,,2019-03-21 10:04:31,2019-03-21 10:05:03,"31,677s",FAILED
,,,,,,
Test Cases/lobbyTest,Chrome 72.0.3626.121,,2019-03-21 10:05:03,2019-03-21 10:05:43,"40,634s",FAILED
"openBrowser("""")",Chrome 72.0.3626.121,,2019-03-21 10:05:03,2019-03-21 10:05:06,"3,457s",PASSED
"navigateToUrl(""https://integratie2-frontend2019.herokuapp.com/"")",Chrome 72.0.3626.121,,2019-03-21 10:05:06,2019-03-21 10:05:11,"4,377s",PASSED
"click(findTestObject(""Object Repository/Page_Integratie2FrontEnd2019/button_Go To Servers (1)""))",Chrome 72.0.3626.121,,2019-03-21 10:05:11,2019-03-21 10:05:11,"0,186s",PASSED
"setText(findTestObject(""Object Repository/Page_Integratie2FrontEnd2019/input_REGISTER_email (3) (1)""), ""testuser@spagoud.com"")",Chrome 72.0.3626.121,,2019-03-21 10:05:11,2019-03-21 10:05:11,"0,346s",PASSED
"setEncryptedText(findTestObject(""Object Repository/Page_Integratie2FrontEnd2019/input_REGISTER_password (3) (1)""), ""1/VWEm4uipk="")",Chrome 72.0.3626.121,,2019-03-21 10:05:11,2019-03-21 10:05:12,"0,152s",PASSED
"click(findTestObject(""Object Repository/Page_Integratie2FrontEnd2019/button_login (3) (1)""))",Chrome 72.0.3626.121,,2019-03-21 10:05:12,2019-03-21 10:05:12,"0,115s",PASSED
"click(findTestObject(""Object Repository/Page_Integratie2FrontEnd2019/button_Go To Servers (1)""))",Chrome 72.0.3626.121,,2019-03-21 10:05:12,2019-03-21 10:05:43,"31,554s",FAILED
