Suite/Test/Step Name,Browser,Description,Start time,End time,Duration,Status
DungeonsAndDragonsTests,Chrome 72.0.3626.121,,2019-03-21 11:54:31,2019-03-21 11:56:13,"1m - 41,904s",FAILED
,,,,,,
Test Cases/login,Chrome 72.0.3626.121,testing the log in sequence of an existing account,2019-03-21 11:54:32,2019-03-21 11:55:34,"1m - 2,383s",FAILED
"openBrowser("""")",Chrome 72.0.3626.121,,2019-03-21 11:54:32,2019-03-21 11:54:38,"6,175s",PASSED
"navigateToUrl(""https://integratie2-frontend2019.herokuapp.com/"")",Chrome 72.0.3626.121,,2019-03-21 11:54:38,2019-03-21 11:55:09,"30,671s",PASSED
"click(findTestObject(""Object Repository/Page_Integratie2FrontEnd2019/button_Log In (2)""))",Chrome 72.0.3626.121,,2019-03-21 11:55:09,2019-03-21 11:55:10,"0,717s",PASSED
"setText(findTestObject(""Object Repository/Page_Integratie2FrontEnd2019/input_REGISTER_email (2)""), ""testuser@spagoud.com"")",Chrome 72.0.3626.121,,2019-03-21 11:55:10,2019-03-21 11:55:11,"0,635s",PASSED
"setEncryptedText(findTestObject(""Object Repository/Page_Integratie2FrontEnd2019/input_REGISTER_password (2)""), ""1/VWEm4uipk="")",Chrome 72.0.3626.121,,2019-03-21 11:55:11,2019-03-21 11:55:11,"0,420s",PASSED
"click(findTestObject(""Object Repository/Page_Integratie2FrontEnd2019/button_login (2)""))",Chrome 72.0.3626.121,,2019-03-21 11:55:11,2019-03-21 11:55:11,"0,222s",PASSED
"click(findTestObject(""Object Repository/Page_Integratie2FrontEnd2019/a_Hi testUser (1)""))",Chrome 72.0.3626.121,,2019-03-21 11:55:11,2019-03-21 11:55:34,"22,888s",FAILED
,,,,,,
Test Cases/lobbyTest,Chrome 72.0.3626.121,,2019-03-21 11:55:34,2019-03-21 11:56:12,"38,270s",FAILED
"openBrowser("""")",Chrome 72.0.3626.121,,2019-03-21 11:55:34,2019-03-21 11:55:37,"2,967s",PASSED
"navigateToUrl(""https://integratie2-frontend2019.herokuapp.com/"")",Chrome 72.0.3626.121,,2019-03-21 11:55:37,2019-03-21 11:55:40,"2,348s",PASSED
"click(findTestObject(""Object Repository/Page_Integratie2FrontEnd2019/button_Go To Servers (1)""))",Chrome 72.0.3626.121,,2019-03-21 11:55:40,2019-03-21 11:55:40,"0,278s",PASSED
"setText(findTestObject(""Object Repository/Page_Integratie2FrontEnd2019/input_REGISTER_email (3) (1)""), ""testuser@spagoud.com"")",Chrome 72.0.3626.121,,2019-03-21 11:55:40,2019-03-21 11:55:40,"0,402s",PASSED
"setEncryptedText(findTestObject(""Object Repository/Page_Integratie2FrontEnd2019/input_REGISTER_password (3) (1)""), ""1/VWEm4uipk="")",Chrome 72.0.3626.121,,2019-03-21 11:55:40,2019-03-21 11:55:41,"0,174s",PASSED
"click(findTestObject(""Object Repository/Page_Integratie2FrontEnd2019/button_login (3) (1)""))",Chrome 72.0.3626.121,,2019-03-21 11:55:41,2019-03-21 11:55:41,"0,167s",PASSED
"click(findTestObject(""Object Repository/Page_Integratie2FrontEnd2019/button_Go To Servers (1)""))",Chrome 72.0.3626.121,,2019-03-21 11:55:41,2019-03-21 11:56:12,"31,533s",FAILED
